\relax 
\citation{Russel}
\@writefile{toc}{\contentsline {chapter}{\numberline {5}Adversarial Search}{11}}
\@writefile{lof}{\addvspace {10\p@ }}
\@writefile{lot}{\addvspace {10\p@ }}
\@writefile{toc}{\contentsline {section}{\numberline {5.1}Minimax Search}{11}}
\@writefile{lof}{\contentsline {figure}{\numberline {5.1}{\ignorespaces Game tree, before minimax search}}{13}}
\newlabel{fig:bfrminimax}{{5.1}{13}}
\@writefile{lof}{\contentsline {figure}{\numberline {5.2}{\ignorespaces Game tree, after minimax search}}{14}}
\newlabel{fig:aftminimax}{{5.2}{14}}
\@writefile{toc}{\contentsline {section}{\numberline {5.2}Static Evaluation}{14}}
\@writefile{lof}{\contentsline {figure}{\numberline {5.3}{\ignorespaces Game tree, after depth limited minimax search}}{16}}
\newlabel{fig:dlminimax}{{5.3}{16}}
\@writefile{toc}{\contentsline {section}{\numberline {5.3}Pruning the Game Tree}{16}}
\@setckpt{adv_srch}{
\setcounter{page}{18}
\setcounter{equation}{0}
\setcounter{enumi}{0}
\setcounter{enumii}{0}
\setcounter{enumiii}{0}
\setcounter{enumiv}{0}
\setcounter{footnote}{0}
\setcounter{mpfootnote}{0}
\setcounter{part}{0}
\setcounter{chapter}{5}
\setcounter{section}{3}
\setcounter{subsection}{0}
\setcounter{subsubsection}{0}
\setcounter{paragraph}{0}
\setcounter{subparagraph}{0}
\setcounter{figure}{3}
\setcounter{table}{0}
\setcounter{parentequation}{0}
}
