\relax 
\@writefile{toc}{\contentsline {chapter}{\numberline {4}Performance Evaluation}{40}}
\@writefile{lof}{\addvspace {10\p@ }}
\@writefile{lot}{\addvspace {10\p@ }}
\newlabel{chap:performanceevaluation}{{4}{40}}
\@writefile{toc}{\contentsline {section}{\numberline {4.1}Dataset and Experimental Setup}{40}}
\@writefile{toc}{\contentsline {section}{\numberline {4.2}Factors for measuring performance}{41}}
\@writefile{toc}{\contentsline {section}{\numberline {4.3}Percentage of document duplications}{41}}
\@writefile{lot}{\contentsline {table}{\numberline {4.1}{\ignorespaces Percentage of duplication in first 10 documents of a cluster }}{42}}
\newlabel{tab:first10Documents}{{4.1}{42}}
\@writefile{toc}{\contentsline {section}{\numberline {4.4}Evaluation of Proposed Work}{42}}
\@writefile{toc}{\contentsline {subsection}{\numberline {4.4.1}With respect to Number of Clusters}{42}}
\@writefile{toc}{\contentsline {paragraph}{Observation}{42}}
\@writefile{lot}{\contentsline {table}{\numberline {4.2}{\ignorespaces Percentage of duplication in first 15 documents of a cluster }}{43}}
\newlabel{tab:first15Documents}{{4.2}{43}}
\@writefile{lot}{\contentsline {table}{\numberline {4.3}{\ignorespaces Percentage of duplication in first 20 documents of a cluster }}{43}}
\newlabel{tab:first20Documents}{{4.3}{43}}
\@writefile{lof}{\contentsline {figure}{\numberline {4.1}{\ignorespaces DBI Value for different number of clusters}}{44}}
\newlabel{fig:DBI for diffrent cluster number}{{4.1}{44}}
\@writefile{lof}{\contentsline {figure}{\numberline {4.2}{\ignorespaces XI-Beni Value for different number of clusters}}{44}}
\newlabel{fig:XI-Beni for diffrent cluster number}{{4.2}{44}}
\@writefile{lof}{\contentsline {figure}{\numberline {4.3}{\ignorespaces KWON Index Value for different number of clusters}}{45}}
\newlabel{fig:KWON for diffrent cluster number}{{4.3}{45}}
\@writefile{toc}{\contentsline {subsection}{\numberline {4.4.2}With respect to position weight}{45}}
\@writefile{lof}{\contentsline {figure}{\numberline {4.4}{\ignorespaces Validation indices Value for different title weight}}{46}}
\newlabel{fig:validation index for diffrent title weight}{{4.4}{46}}
\@writefile{toc}{\contentsline {paragraph}{Observation}{46}}
\@writefile{toc}{\contentsline {subsection}{\numberline {4.4.3}With respect to frequency and weight threshold}{47}}
\@writefile{lof}{\contentsline {figure}{\numberline {4.5}{\ignorespaces Validation indices Value for different frequency threshold}}{47}}
\newlabel{fig:Validation indices Value for different frequency thresold}{{4.5}{47}}
\@writefile{toc}{\contentsline {paragraph}{Observation}{47}}
\@writefile{lof}{\contentsline {figure}{\numberline {4.6}{\ignorespaces Validation indices Value for different weight threshold with frequency threshold 3}}{48}}
\newlabel{fig:Validation indices Value for different weight threshold with frequency threshold 3}{{4.6}{48}}
\@writefile{toc}{\contentsline {subsection}{\numberline {4.4.4}With respect to Initial Cluster Choosing Method}{48}}
\@writefile{lof}{\contentsline {figure}{\numberline {4.7}{\ignorespaces Validation indices Value for different weight threshold with frequency threshold 4}}{49}}
\newlabel{fig:Validation indices Value for different weight threshold with frequency threshold 4}{{4.7}{49}}
\@writefile{toc}{\contentsline {paragraph}{Observation}{49}}
\@writefile{lof}{\contentsline {figure}{\numberline {4.8}{\ignorespaces Number of Cluster vs DBI value in different Initial Cluster Choosing technique }}{50}}
\newlabel{fig:initial BI}{{4.8}{50}}
\@setckpt{performanceevaluation}{
\setcounter{page}{51}
\setcounter{equation}{1}
\setcounter{enumi}{3}
\setcounter{enumii}{2}
\setcounter{enumiii}{0}
\setcounter{enumiv}{0}
\setcounter{footnote}{0}
\setcounter{mpfootnote}{0}
\setcounter{part}{0}
\setcounter{chapter}{4}
\setcounter{section}{4}
\setcounter{subsection}{4}
\setcounter{subsubsection}{0}
\setcounter{paragraph}{0}
\setcounter{subparagraph}{0}
\setcounter{figure}{8}
\setcounter{table}{3}
\setcounter{parentequation}{0}
\setcounter{ALG@line}{13}
\setcounter{ALG@rem}{0}
\setcounter{ALG@nested}{0}
\setcounter{ALG@Lnr}{2}
\setcounter{ALG@blocknr}{10}
\setcounter{ALG@storecount}{0}
\setcounter{ALG@tmpcounter}{0}
\setcounter{float@type}{8}
\setcounter{algorithm}{6}
}
