\relax 
\@writefile{toc}{\contentsline {chapter}{\numberline {3}Proposed Work}{25}}
\@writefile{lof}{\addvspace {10\p@ }}
\@writefile{lot}{\addvspace {10\p@ }}
\@writefile{toc}{\contentsline {section}{\numberline {3.1}Text Preprocessing}{25}}
\@writefile{toc}{\contentsline {subsection}{\numberline {3.1.1}Stop Word Removal}{26}}
\@writefile{lof}{\contentsline {figure}{\numberline {3.1}{\ignorespaces Unnecessary objects and stop word filtering}}{26}}
\newlabel{fig:content after stop word removing}{{3.1}{26}}
\@writefile{toc}{\contentsline {subsection}{\numberline {3.1.2}Keyword Extraction}{27}}
\@writefile{toc}{\contentsline {subsection}{\numberline {3.1.3}Assignment of weight}{28}}
\@writefile{toc}{\contentsline {subsubsection}{\numberline {3.1.3.1}Frequency of the keyword}{28}}
\@writefile{toc}{\contentsline {subsubsection}{\numberline {3.1.3.2}Position of the keyword}{28}}
\@writefile{toc}{\contentsline {subsubsection}{\numberline {3.1.3.3}Value of weight}{29}}
\@writefile{lot}{\contentsline {table}{\numberline {3.1}{\ignorespaces Tag with their respective position weight }}{30}}
\newlabel{tab:tagWeights}{{3.1}{30}}
\@writefile{toc}{\contentsline {subsubsection}{\numberline {3.1.3.4}Filtering less weighted keywords}{31}}
\@writefile{loa}{\contentsline {algorithm}{\numberline {1}{\ignorespaces Calculating weight of a keyword $W_i$}}{32}}
\citation{"sim4"}
\citation{"sim4"}
\@writefile{toc}{\contentsline {section}{\numberline {3.2}Similarity Computation}{33}}
\newlabel{algo:Similarity Calculation}{{3.2}{35}}
\@writefile{loa}{\contentsline {algorithm}{\numberline {2}{\ignorespaces Similarity Calculation}}{35}}
\@writefile{loa}{\contentsline {algorithm}{\numberline {3}{\ignorespaces Initializing Similarity Matrix}}{36}}
\newlabel{algo:initililizeMatrix}{{3}{36}}
\newlabel{algo:calculateSimilarityMatrix}{{3.2}{37}}
\@writefile{loa}{\contentsline {algorithm}{\numberline {4}{\ignorespaces Calculation of Similarity Matrix}}{37}}
\newlabel{algo:checkSemantic}{{3.2}{37}}
\@writefile{loa}{\contentsline {algorithm}{\numberline {5}{\ignorespaces Checking Semantic Words}}{37}}
\newlabel{algo:calculateSimilarityMatrix}{{3.2}{38}}
\@writefile{loa}{\contentsline {algorithm}{\numberline {6}{\ignorespaces Calculation of Similarity Matrix}}{38}}
\@writefile{toc}{\contentsline {section}{\numberline {3.3}Clustering of Web Document}{39}}
\@setckpt{proposedworks}{
\setcounter{page}{40}
\setcounter{equation}{2}
\setcounter{enumi}{3}
\setcounter{enumii}{2}
\setcounter{enumiii}{0}
\setcounter{enumiv}{0}
\setcounter{footnote}{0}
\setcounter{mpfootnote}{0}
\setcounter{part}{0}
\setcounter{chapter}{3}
\setcounter{section}{3}
\setcounter{subsection}{0}
\setcounter{subsubsection}{4}
\setcounter{paragraph}{0}
\setcounter{subparagraph}{0}
\setcounter{figure}{1}
\setcounter{table}{1}
\setcounter{parentequation}{0}
\setcounter{ALG@line}{13}
\setcounter{ALG@rem}{0}
\setcounter{ALG@nested}{0}
\setcounter{ALG@Lnr}{2}
\setcounter{ALG@blocknr}{10}
\setcounter{ALG@storecount}{0}
\setcounter{ALG@tmpcounter}{0}
\setcounter{float@type}{8}
\setcounter{algorithm}{6}
}
