\relax 
\citation{"key1"}
\@writefile{toc}{\contentsline {chapter}{\numberline {2}Related Works and Background Study}{8}}
\@writefile{lof}{\addvspace {10\p@ }}
\@writefile{lot}{\addvspace {10\p@ }}
\newlabel{chap:relatedWork}{{2}{8}}
\@writefile{toc}{\contentsline {section}{\numberline {2.1}Research Activities Related to Keyword Extraction}{8}}
\citation{"key2"}
\citation{"key3"}
\citation{"key4"}
\citation{"key5"}
\citation{"sim1"}
\citation{"sim2"}
\citation{"sim3"}
\@writefile{toc}{\contentsline {section}{\numberline {2.2}Research Activities Related to Similarity Measurement}{10}}
\citation{"sim2"}
\citation{"sim2"}
\citation{"sim4"}
\citation{"sim2"}
\citation{"sim4"}
\citation{"sim5"}
\citation{"sim6"}
\citation{"sim7"}
\citation{"sim3"}
\citation{"sim8"}
\citation{"sim9"}
\citation{"sim10"}
\citation{"sim11"}
\citation{"sim11"}
\citation{"sim17"}
\citation{"sim12"}
\citation{"sim12"}
\citation{"sim13"}
\citation{"sim14"}
\citation{"sim15"}
\citation{"sim16"}
\citation{"clus1"}
\citation{"clus2"}
\@writefile{toc}{\contentsline {section}{\numberline {2.3}Research Activities Related to Clustering}{16}}
\citation{"clus3"}
\citation{"clus4"}
\citation{"clus5"}
\citation{"clus6"}
\citation{"clus7"}
\citation{"clus8"}
\citation{"clus9"}
\citation{"clus9"}
\@writefile{toc}{\contentsline {subsection}{\numberline {2.3.1}Fuzzy C-Means Clustering}{18}}
\@writefile{toc}{\contentsline {subsubsection}{\numberline {2.3.1.1}Basic Procedure of FCM}{19}}
\@writefile{toc}{\contentsline {subsubsection}{\numberline {2.3.1.2}Initial Cluster Centroid Choosing}{20}}
\@writefile{toc}{\contentsline {subsubsection}{\numberline {2.3.1.3}Updating Cluster Centroid Value}{20}}
\@writefile{toc}{\contentsline {subsubsection}{\numberline {2.3.1.4}Updating Membership Value}{20}}
\citation{"val1"}
\citation{"val2"}
\@writefile{toc}{\contentsline {section}{\numberline {2.4}Research Activities Related to Cluster Validation}{21}}
\citation{"val3"}
\citation{"val4"}
\citation{"val5"}
\citation{"val5"}
\@writefile{lot}{\contentsline {table}{\numberline {2.1}{\ignorespaces Some Common HTML Tags}}{24}}
\newlabel{tab:htmlTags}{{2.1}{24}}
\@writefile{toc}{\contentsline {section}{\numberline {2.5}HTML Tags}{24}}
\@setckpt{relatedworks}{
\setcounter{page}{25}
\setcounter{equation}{8}
\setcounter{enumi}{2}
\setcounter{enumii}{2}
\setcounter{enumiii}{0}
\setcounter{enumiv}{0}
\setcounter{footnote}{0}
\setcounter{mpfootnote}{0}
\setcounter{part}{0}
\setcounter{chapter}{2}
\setcounter{section}{5}
\setcounter{subsection}{0}
\setcounter{subsubsection}{4}
\setcounter{paragraph}{0}
\setcounter{subparagraph}{0}
\setcounter{figure}{0}
\setcounter{table}{1}
\setcounter{parentequation}{0}
\setcounter{ALG@line}{0}
\setcounter{ALG@rem}{0}
\setcounter{ALG@nested}{0}
\setcounter{ALG@Lnr}{2}
\setcounter{ALG@blocknr}{10}
\setcounter{ALG@storecount}{0}
\setcounter{ALG@tmpcounter}{0}
\setcounter{float@type}{8}
\setcounter{algorithm}{0}
}
