\relax 
\citation{Russel}
\@writefile{toc}{\contentsline {chapter}{\numberline {2}Adversarial Search}{5}}
\@writefile{lof}{\addvspace {10\p@ }}
\@writefile{lot}{\addvspace {10\p@ }}
\@writefile{toc}{\contentsline {section}{\numberline {2.1}Minimax Search}{5}}
\@writefile{lof}{\contentsline {figure}{\numberline {2.1}{\ignorespaces Game tree, before minimax search}}{7}}
\newlabel{fig:bfrminimax}{{2.1}{7}}
\@writefile{lof}{\contentsline {figure}{\numberline {2.2}{\ignorespaces Game tree, after minimax search}}{7}}
\newlabel{fig:aftminimax}{{2.2}{7}}
\@writefile{toc}{\contentsline {section}{\numberline {2.2}Static Evaluation}{8}}
\@writefile{lof}{\contentsline {figure}{\numberline {2.3}{\ignorespaces Game tree, after depth limited minimax search}}{9}}
\newlabel{fig:dlminimax}{{2.3}{9}}
\@writefile{toc}{\contentsline {section}{\numberline {2.3}Pruning the Game Tree}{10}}
\@setckpt{test}{
\setcounter{page}{11}
\setcounter{equation}{0}
\setcounter{enumi}{0}
\setcounter{enumii}{0}
\setcounter{enumiii}{0}
\setcounter{enumiv}{0}
\setcounter{footnote}{0}
\setcounter{mpfootnote}{0}
\setcounter{part}{0}
\setcounter{chapter}{2}
\setcounter{section}{3}
\setcounter{subsection}{0}
\setcounter{subsubsection}{0}
\setcounter{paragraph}{0}
\setcounter{subparagraph}{0}
\setcounter{figure}{3}
\setcounter{table}{0}
\setcounter{parentequation}{0}
}
