\relax 
\@input{acknowledgements.aux}
\@input{declaration.aux}
\@input{intro.aux}
\@input{relatedworks.aux}
\@input{proposedworks.aux}
\@input{performanceevaluation.aux}
\@input{conclusion.aux}
\bibstyle{unsrt}
\bibdata{thesis}
\bibcite{"key1"}{1}
\bibcite{"key2"}{2}
\bibcite{"key3"}{3}
\bibcite{"key4"}{4}
\bibcite{"key5"}{5}
\bibcite{"sim1"}{6}
\bibcite{"sim2"}{7}
\@writefile{toc}{\contentsline {chapter}{\hbox to\@tempdima {\hfil }References}{53}}
\bibcite{"sim3"}{8}
\bibcite{"sim4"}{9}
\bibcite{"sim5"}{10}
\bibcite{"sim6"}{11}
\bibcite{"sim7"}{12}
\bibcite{"sim8"}{13}
\bibcite{"sim9"}{14}
\bibcite{"sim10"}{15}
\bibcite{"sim11"}{16}
\bibcite{"sim17"}{17}
\bibcite{"sim12"}{18}
\bibcite{"sim13"}{19}
\bibcite{"sim14"}{20}
\bibcite{"sim15"}{21}
\bibcite{"sim16"}{22}
\bibcite{"clus1"}{23}
\bibcite{"clus2"}{24}
\bibcite{"clus3"}{25}
\bibcite{"clus4"}{26}
\bibcite{"clus5"}{27}
\bibcite{"clus6"}{28}
\bibcite{"clus7"}{29}
\bibcite{"clus8"}{30}
\bibcite{"clus9"}{31}
\bibcite{"val1"}{32}
\bibcite{"val2"}{33}
\bibcite{"val3"}{34}
\bibcite{"val4"}{35}
\bibcite{"val5"}{36}
