This is BibTeX, Version 0.99dThe top-level auxiliary file: thesis.aux
A level-1 auxiliary file: acknowledgements.aux
A level-1 auxiliary file: declaration.aux
A level-1 auxiliary file: intro.aux
A level-1 auxiliary file: relatedworks.aux
A level-1 auxiliary file: proposedworks.aux
A level-1 auxiliary file: performanceevaluation.aux
A level-1 auxiliary file: conclusion.aux
The style file: unsrt.bst
Database file #1: thesis.bib
You're missing a field part---line 321 of file thesis.bib
 :  title = 
 :          (Comparative investigations and Performance analysis of FCM and MFPCM
I'm skipping whatever remains of this entry
Too many commas in name 1 of "Dingyi Chen, Xue Li, Jing Liu, Xia Chen" for entry "key1"
while executing---line 944 of file unsrt.bst
Warning--empty booktitle in "key1"
Warning--empty year in "key1"
Name 1 in "E. Frank, G. W. Paynter, I. H. Witten,C. Gutwin, and C. G. Nevil" has a comma at the end for entry "key4"
while executing---line 944 of file unsrt.bst
Too many commas in name 1 of "E. Frank, G. W. Paynter, I. H. Witten,C. Gutwin, and C. G. Nevil" for entry "key4"
while executing---line 944 of file unsrt.bst
Warning--empty booktitle in "sim2"
Name 1 in "Scott Deerwester, Susan Dumais, George Furnas, Thomas Landauer, and Richard Harshman" has a comma at the end for entry "sim3"
while executing---line 944 of file unsrt.bst
Too many commas in name 1 of "Scott Deerwester, Susan Dumais, George Furnas, Thomas Landauer, and Richard Harshman" for entry "sim3"
while executing---line 944 of file unsrt.bst
Warning--empty author in "sim4"
Warning--empty booktitle in "sim4"
Too many commas in name 1 of "Peng Qin, Zhao Lu, Yu Yan, Fang Wu" for entry "sim5"
while executing---line 944 of file unsrt.bst
Warning--empty booktitle in "sim8"
Warning--empty year in "sim8"
Warning--empty booktitle in "sim9"
Too many commas in name 1 of "Lieeve Hamers,Yves Hemycker,Guido Herweyears,Marc Janssen,Ronald Rousseau and Vanhoutte" for entry "sim11"
while executing---line 944 of file unsrt.bst
Too many commas in name 1 of "Lieeve Hamers,Yves Hemycker,Guido Herweyears,Marc Janssen,Ronald Rousseau and Vanhoutte" for entry "sim11"
while executing---line 944 of file unsrt.bst
Warning--empty booktitle in "sim11"
Warning--empty booktitle in "sim17"
Warning--empty booktitle in "sim13"
Warning--empty year in "sim13"
Name 1 in "J. Gracia, R. Trillo, M. Espinoza, and E. Mena" has a comma at the end for entry "sim15"
while executing---line 944 of file unsrt.bst
Warning--empty title in "clus1"
Warning--empty booktitle in "clus1"
Warning--empty year in "clus1"
Warning--empty booktitle in "clus2"
Warning--empty booktitle in "clus4"
Warning--empty booktitle in "clus7"
Warning--empty booktitle in "val1"
Warning--empty booktitle in "val2"
(There were 10 error messages)
