\addvspace {10\p@ }
\addvspace {10\p@ }
\contentsline {table}{\numberline {2.1}{\ignorespaces Some Common HTML Tags}}{24}
\addvspace {10\p@ }
\contentsline {table}{\numberline {3.1}{\ignorespaces Tag with their respective position weight }}{30}
\addvspace {10\p@ }
\contentsline {table}{\numberline {4.1}{\ignorespaces Percentage of duplication in first 10 documents of a cluster }}{42}
\contentsline {table}{\numberline {4.2}{\ignorespaces Percentage of duplication in first 15 documents of a cluster }}{43}
\contentsline {table}{\numberline {4.3}{\ignorespaces Percentage of duplication in first 20 documents of a cluster }}{43}
\addvspace {10\p@ }
